66.66.153.254
75.206.112.163
140.69.190.92
162.154.184.26
121.218.26.45
162.187.135.20
20.39.185.6
177.82.214.243
147.112.242.222
63.100.131.202
168.66.40.76
219.223.102.86
187.127.131.94
59.11.114.78
50.44.83.227
126.43.215.19
154.203.241.217
48.117.165.216
182.204.38.147
172.139.232.105
11.109.198.70
119.58.147.169
102.230.141.227
18.102.246.172
51.233.134.99
95.44.60.23
247.98.169.165
236.147.15.247
2.213.62.120